\babel@toc {english}{}
\beamer@sectionintoc {1}{Introduction}{2}{0}{1}
\beamer@sectionintoc {2}{INTERCHU}{3}{0}{2}
\beamer@sectionintoc {3}{Datathon}{15}{0}{3}
\beamer@sectionintoc {4}{Conclusion}{17}{0}{4}
